LogicalStep_Lab4.msim.vcd
$comment
	File created using the following command:
		vcd file LogicalStep_Lab4.msim.vcd -direction
$end
$date
	Wed Mar 15 11:13:14 2023
$end
$version
	ModelSim Version 10.4b
$end
$timescale
	1ps
$end

$scope module LogicalStep_Lab4_top_vlg_vec_tst $end
$var reg 1 ! clkin_50 $end
$var reg 4 " pb_n [3:0] $end
$var reg 1 # rst_n $end
$var reg 8 $ sw [7:0] $end
$var wire 1 % leds [7] $end
$var wire 1 & leds [6] $end
$var wire 1 ' leds [5] $end
$var wire 1 ( leds [4] $end
$var wire 1 ) leds [3] $end
$var wire 1 * leds [2] $end
$var wire 1 + leds [1] $end
$var wire 1 , leds [0] $end
$var wire 1 - seg7_char1 $end
$var wire 1 . seg7_char2 $end
$var wire 1 / seg7_data [6] $end
$var wire 1 0 seg7_data [5] $end
$var wire 1 1 seg7_data [4] $end
$var wire 1 2 seg7_data [3] $end
$var wire 1 3 seg7_data [2] $end
$var wire 1 4 seg7_data [1] $end
$var wire 1 5 seg7_data [0] $end

$scope module i1 $end
$var wire 1 6 gnd $end
$var wire 1 7 vcc $end
$var wire 1 8 unknown $end
$var tri1 1 9 devclrn $end
$var tri1 1 : devpor $end
$var tri1 1 ; devoe $end
$var wire 1 < rst_n~input_o $end
$var wire 1 = sw[0]~input_o $end
$var wire 1 > sw[1]~input_o $end
$var wire 1 ? sw[2]~input_o $end
$var wire 1 @ sw[3]~input_o $end
$var wire 1 A sw[4]~input_o $end
$var wire 1 B sw[5]~input_o $end
$var wire 1 C sw[6]~input_o $end
$var wire 1 D sw[7]~input_o $end
$var wire 1 E leds[0]~output_o $end
$var wire 1 F leds[1]~output_o $end
$var wire 1 G leds[2]~output_o $end
$var wire 1 H leds[3]~output_o $end
$var wire 1 I leds[4]~output_o $end
$var wire 1 J leds[5]~output_o $end
$var wire 1 K leds[6]~output_o $end
$var wire 1 L leds[7]~output_o $end
$var wire 1 M seg7_data[0]~output_o $end
$var wire 1 N seg7_data[1]~output_o $end
$var wire 1 O seg7_data[2]~output_o $end
$var wire 1 P seg7_data[3]~output_o $end
$var wire 1 Q seg7_data[4]~output_o $end
$var wire 1 R seg7_data[5]~output_o $end
$var wire 1 S seg7_data[6]~output_o $end
$var wire 1 T seg7_char1~output_o $end
$var wire 1 U seg7_char2~output_o $end
$var wire 1 V clkin_50~input_o $end
$var wire 1 W pb_n[3]~input_o $end
$var wire 1 X INST2|clk_divider:counter[0]~1_combout $end
$var wire 1 Y INST2|clk_divider:counter[0]~q $end
$var wire 1 Z INST2|clk_divider:counter[0]~2 $end
$var wire 1 [ INST2|clk_divider:counter[1]~1_combout $end
$var wire 1 \ INST2|clk_divider:counter[1]~q $end
$var wire 1 ] INST2|clk_divider:counter[1]~2 $end
$var wire 1 ^ INST2|clk_divider:counter[2]~1_combout $end
$var wire 1 _ INST2|clk_divider:counter[2]~q $end
$var wire 1 ` INST2|blink_sig~0_combout $end
$var wire 1 a INST2|blink_sig~q $end
$var wire 1 b pb_n[2]~input_o $end
$var wire 1 c pb_n[0]~input_o $end
$var wire 1 d Inst4|sreg[1]~0_combout $end
$var wire 1 e inst6|d~0_combout $end
$var wire 1 f inst6|d~q $end
$var wire 1 g inst6|sreg~q $end
$var wire 1 h INST2|clk_divider:counter[2]~2 $end
$var wire 1 i INST2|clk_divider:counter[3]~1_combout $end
$var wire 1 j INST2|clk_divider:counter[3]~q $end
$var wire 1 k INST2|clk_divider:counter[3]~2 $end
$var wire 1 l INST2|clk_divider:counter[4]~1_combout $end
$var wire 1 m INST2|clk_divider:counter[4]~q $end
$var wire 1 n INST2|clk_reg_extend~0_combout $end
$var wire 1 o INST2|clk_reg_extend~1_combout $end
$var wire 1 p INST2|sm_clken~combout $end
$var wire 1 q pb_n[1]~input_o $end
$var wire 1 r Inst3|sreg[1]~0_combout $end
$var wire 1 s inst5|d~0_combout $end
$var wire 1 t inst5|d~q $end
$var wire 1 u inst5|sreg~q $end
$var wire 1 v INST2|clk_reg_extend [1] $end
$var wire 1 w INST2|clk_reg_extend [0] $end
$var wire 1 x Inst4|sreg [1] $end
$var wire 1 y Inst4|sreg [0] $end
$var wire 1 z Inst3|sreg [1] $end
$var wire 1 { Inst3|sreg [0] $end
$upscope $end
$upscope $end
$enddefinitions $end
#0
$dumpvars
0!
b1111 "
x#
bx $
0,
0+
0*
0)
0(
0'
0&
0%
0-
0.
05
04
03
02
01
00
0/
06
17
x8
19
1:
1;
x<
x=
x>
x?
x@
xA
xB
xC
xD
0E
0F
0G
0H
0I
0J
0K
0L
0M
0N
0O
0P
0Q
0R
0S
0T
0U
0V
1W
1X
0Y
0Z
0[
0\
1]
0^
0_
0`
0a
1b
1c
0d
0e
0f
0g
0h
0i
0j
1k
0l
0m
0n
0o
0p
1q
0r
0s
0t
0u
0w
0v
0y
0x
0{
0z
$end
#10000
1!
1V
1Y
1Z
0X
1[
#20000
0!
0V
#30000
1!
1V
1\
0Y
0]
0Z
0[
1X
1]
1^
1[
0^
#40000
0!
0V
#50000
1!
1V
1Y
1Z
0X
0]
0[
1^
#60000
0!
0V
#70000
b1110 "
b1100 "
1!
0q
0c
1V
1r
1d
1_
0\
0Y
1h
1]
0Z
1`
0^
1[
1X
0h
1i
1^
0[
0i
#80000
0!
0V
#90000
1!
1V
1Y
1z
1x
1a
1E
1Z
1,
0X
1[
#100000
0!
0V
#110000
1!
1V
1{
1y
1\
0Y
0]
0Z
1s
1e
0[
1X
1h
1]
0^
1[
0h
1i
1^
0i
#120000
0!
0V
#130000
1!
1V
1Y
1t
1f
1Z
0X
0]
0[
1h
0^
1i
#140000
0!
0V
#150000
1!
1V
1j
0_
0\
0Y
1u
1g
1F
1H
0k
0h
1]
0Z
1)
1+
0i
0`
1^
1[
1X
1k
1l
1i
0^
0[
0l
#160000
0!
0V
#170000
1!
1V
1Y
0a
0E
1Z
0,
0X
1[
#180000
0!
0V
#190000
1!
1V
1\
0Y
0]
0Z
0[
1X
1]
1^
1[
0^
#200000
0!
0V
#210000
1!
1V
1Y
1Z
0X
0]
0[
1^
#220000
0!
0V
#230000
1!
1V
1_
0\
0Y
1h
1]
0Z
1`
0^
1[
1X
0k
0h
0i
1^
0[
1k
1l
1i
0l
#240000
0!
0V
#250000
1!
1V
1Y
1a
1E
1Z
1,
0X
1[
#260000
0!
0V
#270000
1!
1V
1\
0Y
0]
0Z
0[
1X
1h
1]
0^
1[
0k
0h
0i
1^
1k
1l
1i
0l
#280000
0!
0V
#290000
1!
1V
1Y
1Z
0X
0]
0[
1h
0^
0k
0i
1l
#300000
0!
0V
#310000
1!
1V
1m
0j
0_
0\
0Y
1k
0h
1]
0Z
1n
0l
1i
0`
1^
1[
1X
1l
0i
0^
0[
#320000
0!
0V
#330000
1!
1V
1w
1Y
0a
0E
1Z
0,
1p
1o
0X
1G
1*
1[
#340000
0!
0V
#350000
1!
1V
1v
1\
0Y
0]
0Z
0p
0[
1X
0G
1]
0*
1^
1[
0^
#360000
0!
0V
#370000
1!
1V
1Y
1Z
0X
0]
0[
1^
#380000
0!
0V
#390000
1!
1V
1_
0\
0Y
1h
1]
0Z
1`
0^
1[
1X
0h
1i
1^
0[
0i
#400000
0!
0V
#410000
1!
1V
1Y
1a
1E
1Z
1,
0X
1[
#420000
0!
0V
#430000
1!
1V
1\
0Y
0]
0Z
0[
1X
1h
1]
0^
1[
0h
1i
1^
0i
#440000
0!
0V
#450000
1!
1V
1Y
1Z
0X
0]
0[
1h
0^
1i
#460000
0!
0V
#470000
1!
1V
1j
0_
0\
0Y
0k
0h
1]
0Z
0i
0`
1^
1[
1X
1k
0l
1i
0^
0[
1l
#480000
0!
0V
#490000
1!
1V
1Y
0a
0E
1Z
0,
0X
1[
#500000
0!
0V
#510000
1!
1V
1\
0Y
0]
0Z
0[
1X
1]
1^
1[
0^
#520000
0!
0V
#530000
1!
1V
1Y
1Z
0X
0]
0[
1^
#540000
0!
0V
#550000
1!
1V
1_
0\
0Y
1h
1]
0Z
1`
0^
1[
1X
0k
0h
0i
1^
0[
1k
0l
1i
1l
#560000
0!
0V
#570000
1!
1V
1Y
1a
1E
1Z
1,
0X
1[
#580000
0!
0V
#590000
1!
1V
1\
0Y
0]
0Z
0[
1X
1h
1]
0^
1[
0k
0h
0i
1^
1k
0l
1i
1l
#600000
0!
0V
#610000
1!
1V
1Y
1Z
0X
0]
0[
1h
0^
0k
0i
0l
#620000
0!
0V
#630000
1!
1V
0m
0j
0_
0\
0Y
1k
0h
1]
0Z
0n
1l
1i
0`
1^
1[
1X
0l
0i
0^
0[
#640000
0!
0V
#650000
1!
1V
0w
1Y
0a
0E
1Z
0,
0o
0X
1[
#660000
0!
0V
#670000
1!
1V
0v
1\
0Y
0]
0Z
0[
1X
1]
1^
1[
0^
#680000
0!
0V
#690000
1!
1V
1Y
1Z
0X
0]
0[
1^
#700000
0!
0V
#710000
1!
1V
1_
0\
0Y
1h
1]
0Z
1`
0^
1[
1X
0h
1i
1^
0[
0i
#720000
0!
0V
#730000
1!
1V
1Y
1a
1E
1Z
1,
0X
1[
#740000
0!
0V
#750000
1!
1V
1\
0Y
0]
0Z
0[
1X
1h
1]
0^
1[
0h
1i
1^
0i
#760000
0!
0V
#770000
1!
1V
1Y
1Z
0X
0]
0[
1h
0^
1i
#780000
0!
0V
#790000
1!
1V
1j
0_
0\
0Y
0k
0h
1]
0Z
0i
0`
1^
1[
1X
1k
1l
1i
0^
0[
0l
#800000
0!
0V
#810000
1!
1V
1Y
0a
0E
1Z
0,
0X
1[
#820000
0!
0V
#830000
1!
1V
1\
0Y
0]
0Z
0[
1X
1]
1^
1[
0^
#840000
0!
0V
#850000
1!
1V
1Y
1Z
0X
0]
0[
1^
#860000
0!
0V
#870000
1!
1V
1_
0\
0Y
1h
1]
0Z
1`
0^
1[
1X
0k
0h
0i
1^
0[
1k
1l
1i
0l
#880000
0!
0V
#890000
1!
1V
1Y
1a
1E
1Z
1,
0X
1[
#900000
0!
0V
#910000
1!
1V
1\
0Y
0]
0Z
0[
1X
1h
1]
0^
1[
0k
0h
0i
1^
1k
1l
1i
0l
#920000
0!
0V
#930000
1!
1V
1Y
1Z
0X
0]
0[
1h
0^
0k
0i
1l
#940000
0!
0V
#950000
1!
1V
1m
0j
0_
0\
0Y
1k
0h
1]
0Z
1n
0l
1i
0`
1^
1[
1X
1l
0i
0^
0[
#960000
0!
0V
#970000
1!
1V
1w
1Y
0a
0E
1Z
0,
1p
1o
0X
1G
1*
1[
#980000
0!
0V
#990000
1!
1V
1v
1\
0Y
0]
0Z
0p
0[
1X
0G
1]
0*
1^
1[
0^
